{
    "$id": "file:///Users/user/Workplace/shipper.id/go/ordersvc_1/docs/schema/driver_data.schema.json",
    "$schema": "http://json-schema.org/draft-04/schema",
    "properties": {
        "id": {
            "type": "integer"
        },
        "name": {
            "type": "string"
        },
        "phoneNumber": {
            "type": "string"
        },
        "vehicleType": {
            "type": "string"
        },
        "vehicleNumber": {
            "type": "string"
        },
        "isPaymentCollected": {
            "type": "integer"
        },
        "feedback": {
            "type": "object",
            "properties": {
                "score": {
                    "type": "integer"
                },
                "comment": {
                    "type": "string"
                }
            }
        },
        "agentID": {
            "type": "integer"
        },
        "agentName": {
            "type": "string"
        }
    }
}