{
    "$id": "file:///Users/user/Workingspace/shipper.id/go/ordersvc_1/docs/schema/shipment_status_data.schema.json",
    "$schema": "http://json-schema.org/draft-04/schema#",
    "type": "object",
    "properties": {
        "name": {
            "type": "string"
        },
        "description": {
            "type": "string"
        },
        "statusCode": {
            "type": "integer"
        },
        "updatedBy": {
            "type": "string"
        },
        "updateDate": {
            "type": "string"
        }
    }
}